{
	"name": "CherryPick",
	"dockerComposeFile": "docker-compose.yml",
	"service": "app",
	"workspaceFolder": "/workspace",
	"features": {
		"ghcr.io/devcontainers-contrib/features/pnpm:2": {},
		"ghcr.io/devcontainers/features/node:1": {
			"version": "20.5.1"
		}
	},
	"forwardPorts": [3000],
	"postCreateCommand": "sudo chmod 755 .devcontainer/init.sh && .devcontainer/init.sh",
	"customizations": {
		"vscode": {
			"extensions": [
				"editorconfig.editorconfig",
				"dbaeumer.vscode-eslint",
				"Vue.volar",
				"Vue.vscode-typescript-vue-plugin",
				"Orta.vscode-jest",
				"dbaeumer.vscode-eslint",
				"mrmlnc.vscode-json5"
			]
		}
	}
}
